^G:\USERS\ZHONGFANG\DOCUMENTS\GITHUB\DATASTRUCTURE\4数组、字符串和广义表\所有元素左移空间1时间N\所有元素左移空间1时间N\DEBUG\源.OBJ
G:\USERS\ZHONGFANG\DOCUMENTS\GITHUB\DATASTRUCTURE\4数组、字符串和广义表\所有元素左移空间1时间N\DEBUG\所有元素左移空间1时间N.ILK
G:\USERS\ZHONGFANG\DOCUMENTS\GITHUB\DATASTRUCTURE\4数组、字符串和广义表\所有元素左移空间1时间N\DEBUG\所有元素左移空间1时间N.EXE
G:\USERS\ZHONGFANG\DOCUMENTS\GITHUB\DATASTRUCTURE\4数组、字符串和广义表\所有元素左移空间1时间N\DEBUG\所有元素左移空间1时间N.PDB
